"product_name","qty"
"Pâte de pistache",5
"crème épaisse",-25
"sucre roux",47
"cannelle",11
"chocolat",-28
"cacao poudre",33
"saumon",9
"strychnine",22
"Sucre glace",-31
"jambon",-14
"fécule",-35
"Uranium 232",24
"anti-vomitif",23
"Farine T45",38
"Sucre glace",32
"Cassonade",-2
"Amande poudre",40
"Amande poudre",37
"endive",-34
"noisettes hachées",34
"parfums",32
"Cassonade",48
"Miel",17
"Noix",-9
"vanille liquide",35
"zestes argrumes",36
"cacao poudre",10
"pain",-11
"écorces orange",-28
"cannelle",-37
"parfums",-32
"levure chimique",13
"levure chimique",48
"crème épaisse",14
"levure chimique",-17
"Farine T45",20
"jaunes d'œufs",-36
"Noix",-44
"Uranium 232",17
"saumon",0
"colorant bleu",3
"Citron",-11
"endive",-18
"Amande poudre",16
"miel",-43
"oeuf",-42
"E7555",14
"Cassonade",0
"crème de tartre",-9
"orange",6
"détergent",-24
"Noix",-33
"Noix hachées",41
"Mélange 5 épices",3
"Sucre glace",-5
"citronelle",37
"Miel",36
"endive",14
"Farine",-34
"jambon",25
"Fruits confits mélangés",-16
"noisettes hachées",9
"sucre roux",-48
"pain",-27
"E849",-15
"Noix hachées",-6
"colorant bleu",-43
"jaunes d'œufs",29
"colorant bleu",16
"zestes argrumes",0
"zestes argrumes",49
"Beurre",30
"cacao poudre",1
"cacao poudre",-8
"détergent",-46
"Noix",47
"sel",-35
"parfums",22
"colorant rouge",14
"Citron",-46
"Cannelle poudre",-40
"fécule",-20
"E7555",10
"Sucre glace",11
"colorant bleu",20
"zestes argrumes",41
"saumon",-50
